{
    "keyWords": [
        "IXEKIZUMAB",
        "MONOCLONAL",
        "UMANIZAT",
        "AUTOINJECTOR",
        "SPECIFICITATE",
        "RAPIDITATE"
    ],
    "quizzQuestions": [
        {
            "questionText": "Definitia psoriazisului:",
            "answearVariants": [
                {
                    "answearVariantText": "Psoriazisul este o boala inflamatorie cronica mediata imun care afecteaza doar pielea.",
                    "isCorrect": false
                },
                {
                    "answearVariantText": "Psoriazisul este o afectiune cronica, care afecteaza pielea, iar studiile au aratat ca sistemul imunitar joaca un rol esential in patogenia acesteia.",
                    "isCorrect": true
                },
                {
                    "answearVariantText": "Psoriazisul este o boala autoimuna cronica care se datoreaza exclusiv hiperproliferarii keratinocitelor.",
                    "isCorrect": false
                }
            ]
        },
        {
            "questionText": "Care din afectiunile de mai jos sunt exemple de patologie inflamatorie/imuna?",
            "answearVariants": [
                {
                    "answearVariantText": "Artrita psoriazica",
                    "isCorrect": true
                },
                {
                    "answearVariantText": "Boala Crohn",
                    "isCorrect": true
                },
                {
                    "answearVariantText": "Schizofrenia",
                    "isCorrect": false
                },
                {
                    "answearVariantText": "Lupusul eritematos sistemic",
                    "isCorrect": true
                }
            ]
        },
        {
            "questionText": "Keratinocitul este:",
            "answearVariants": [
                {
                    "answearVariantText": "O celula inactiva care doar alcatuieste stratul extern al pielii.",
                    "isCorrect": false
                },
                {
                    "answearVariantText": "O celula activa imunologic, care secreta diferite citokine si alti factori inflamatori.",
                    "isCorrect": true
                },
                {
                    "answearVariantText": "O celula cu functie endoctrina.",
                    "isCorrect": false
                },
                {
                    "answearVariantText": "O celula cu functie de aparare antimicrobiana.",
                    "isCorrect": true
                }
            ]
        },
        {
            "questionText": "Care dintre tipurile de celula de mai jos joaca un rol cunoscut in patologia Psoriazisului?",
            "answearVariants": [
                {
                    "answearVariantText": "Keratinocite",
                    "isCorrect": true
                },
                {
                    "answearVariantText": "Neutrofile",
                    "isCorrect": true
                },
                {
                    "answearVariantText": "Astrocite",
                    "isCorrect": false
                },
                {
                    "answearVariantText": "Limfocite Th17",
                    "isCorrect": true
                }
            ]
        },
        {
            "questionText": "Care dintre urmatoarele tipuri de celule nu au un rol definit in patologia Psoriazisului?",
            "answearVariants": [
                {
                    "answearVariantText": "Celula dendritica prezentatoare de antigen",
                    "isCorrect": false
                },
                {
                    "answearVariantText": "Limfocitul B",
                    "isCorrect": true
                },
                {
                    "answearVariantText": "Celule producatoare de IL-17",
                    "isCorrect": false
                },
                {
                    "answearVariantText": "Plasmocitele",
                    "isCorrect": true
                }
            ]
        },
        {
            "questionText": "Pentru tratarea psoriazisului, urmatoarele tinte moleculare sunt disponibile pentru arsenalul terapeutic rambursat in Romania:",
            "answearVariants": [
                {
                    "answearVariantText": "TNF-alfa",
                    "isCorrect": true
                },
                {
                    "answearVariantText": "IL-12/23",
                    "isCorrect": true
                },
                {
                    "answearVariantText": "IL-22",
                    "isCorrect": false
                },
                {
                    "answearVariantText": "IL-17",
                    "isCorrect": true
                }
            ]
        },
        {
            "questionText": "Dintre datele farmacologice referitoare la Ixekizumab, urmatoarele afirmatii sunt adevarate:",
            "answearVariants": [
                {
                    "answearVariantText": "Este un anticorp monoclonal cu structura de IgG1.",
                    "isCorrect": false
                },
                {
                    "answearVariantText": "Este un anticorp monoclonal cu structura de IgG4.",
                    "isCorrect": true
                },
                {
                    "answearVariantText": "Este un anticorp monoclonal cu structura de IgM.",
                    "isCorrect": false
                },
                {
                    "answearVariantText": "Este un anticorp policlonal cu structura de IgG4.",
                    "isCorrect": false
                }
            ]
        },
        {
            "questionText": "In ceea ce priveste administrarea Ixekizumab, la pacientii cu psoriazis sever:",
            "answearVariants": [
                {
                    "answearVariantText": "Doza de initiere este de 160 mg (2 x 80mg).",
                    "isCorrect": true
                },
                {
                    "answearVariantText": "Doza de inductie, in primele 12 saptamani de tratament, este de 80mg la 2 saptamani.",
                    "isCorrect": true
                },
                {
                    "answearVariantText": "Doza de mentinere, dupa primele 12 saptamani, este de 80 mg la 4 saptamani.",
                    "isCorrect": true
                }
            ]
        },
        {
            "questionText": "Efectul benefic din punct de vedere clinic al tratamentului cu Ixekizumab a fost semnificativ in studiile clinice UNCOVER:",
            "answearVariants": [
                {
                    "answearVariantText": "Dupa saptamana 1 de tratament.",
                    "isCorrect": true
                },
                {
                    "answearVariantText": "Incepand cu o luna de tratament.",
                    "isCorrect": false
                },
                {
                    "answearVariantText": "Odata ce a trecut perioada de inductie, de 12 saptamani.",
                    "isCorrect": false
                },
                {
                    "answearVariantText": "Atat fata de placebo, cat si fata de comparatorul activ, Etanercept.",
                    "isCorrect": true
                }
            ]
        },
        {
            "questionText": "Referitor la eficacitatea tratamentului cu Ixekizumab, in schema de dozare aprobata pentru psoriazis moderat-sever, rezultatele obtinute la 12 saptamani in meta-analiza studiilor pivotale UNCOVER-1, -2 si -3 sunt:",
            "answearVariants": [
                {
                    "answearVariantText": "PASI 75 – 89% dintre pacienti",
                    "isCorrect": true
                },
                {
                    "answearVariantText": "PASI 90 – 70% dintre pacienti",
                    "isCorrect": true
                },
                {
                    "answearVariantText": "PASI 90 – 90% dintre pacienti",
                    "isCorrect": false
                },
                {
                    "answearVariantText": "PASI 100 – 38 % dintre pacienti",
                    "isCorrect": true
                }
            ]
        },
        {
            "questionText": "Pe termen lung (pana la 108 saptamani) pacientii tratati cu Ixekizumab, in doza aprobata:",
            "answearVariants": [
                {
                    "answearVariantText": "Au pierdut rapid eficacitatea tratamentului.",
                    "isCorrect": false
                },
                {
                    "answearVariantText": "Au mentinut un nivel ridicat al eficacitatii tratamentului",
                    "isCorrect": true
                },
                {
                    "answearVariantText": "Au avut o evolutie oscilanta, cu remisiuni si recaderi ale bolii",
                    "isCorrect": false
                }
            ]
        },
        {
            "questionText": "Privind eficacitatea Ixekizumab la pacientii naivi pentru terapie biologica versus cei bio-experimentati, studiile UNCOVER au aratat ca:",
            "answearVariants": [
                {
                    "answearVariantText": "Aproximativ aceleasi rate de raspuns au fost observate",
                    "isCorrect": true
                },
                {
                    "answearVariantText": "Tratamentul anterior cu alte produse biologice a indus un raspuns la ixekizumab semnificativ mai bun fata de cel observat la pacientii naivi.",
                    "isCorrect": false
                }
            ]
        },
        {
            "questionText": "Eficacitatea clinica a Ixekizumab-ului, din studiul IXORA-S:",
            "answearVariants": [
                {
                    "answearVariantText": "Este mai buna pentru pacientii cu o greutate corporala mai mica de 100 kg.",
                    "isCorrect": false
                },
                {
                    "answearVariantText": "Nu este semnificativ diferita in functie de greutatea corporala a pacientilor tratati.",
                    "isCorrect": true
                },
                {
                    "answearVariantText": "A devenit semnificativ superioara versus comparatorul activ (Ustekinumab) incepand cu saptamana 4 de tratament.",
                    "isCorrect": true
                },
                {
                    "answearVariantText": "Nu exista o relevanta clinica a acestor date, intrucat dozele din studiu nu au fost cele aprobate pentru practica curenta.",
                    "isCorrect": false
                }
            ]
        },
        {
            "questionText": "Intre reactiile adverse intalnite la Ixekizumab in studiile clinice UNCOVER:",
            "answearVariants": [
                {
                    "answearVariantText": "Infectiile de tract respirator superior au fost grave si au necesitat internare.",
                    "isCorrect": false
                },
                {
                    "answearVariantText": "Au fost observate reactivari ale unor infectii TB latent.",
                    "isCorrect": false
                },
                {
                    "answearVariantText": "Profilul general de siguranta a fost similar, intre Ixekizumab si Etanercept.",
                    "isCorrect": true
                },
                {
                    "answearVariantText": "Nu s-au inregistrat cazuri de infectie TB activa.",
                    "isCorrect": true
                }
            ]
        },
        {
            "questionText": "Sunt adevarate urmatoarele afirmatii:",
            "answearVariants": [
                {
                    "answearVariantText": "Izekizumab nu trebuie sa fie utilizat cu vaccinuri vii.",
                    "isCorrect": true
                },
                {
                    "answearVariantText": "Ixekizumab poate fi administrat la pacienti cu infectie TB activa.",
                    "isCorrect": false
                },
                {
                    "answearVariantText": "Candidoza orala apare cu o frecventa mai mare la pacientii tratati cu Ixekizumab.",
                    "isCorrect": true
                },
                {
                    "answearVariantText": "Ixekizumab nu poate provoca reactii de tip urticarian generalizate.",
                    "isCorrect": false
                }
            ]
        },
        {
            "questionText": "Sunt adevarate urmatoarele afirmatii:",
            "answearVariants": [
                {
                    "answearVariantText": "Cele mai frecvente reactii la locul de injectare au fost eritemul local si durerea.",
                    "isCorrect": true
                },
                {
                    "answearVariantText": "Cele mai frecvente reactii la locul de injectare au fost hemoragia si infectia.",
                    "isCorrect": false
                },
                {
                    "answearVariantText": "Majoritatea reactiilor la locul de injectare observate in timpul tratamentului cu Ixekizumab nu au fost grave si nu au necesitat intreruperea tratamentului.",
                    "isCorrect": true
                }
            ]
        },
        {
            "questionText": "Mecanismul de actiune al Ixekizumab este specific prin aceea ca:",
            "answearVariants": [
                {
                    "answearVariantText": "Inhiba interleukina care actioneaza direct asupra Keratinocitelor (IL-17A).",
                    "isCorrect": true
                },
                {
                    "answearVariantText": "Inhiba multiple citokine pro-inflamatorii, printre care IL-17A.",
                    "isCorrect": false
                },
                {
                    "answearVariantText": "Actioneaza asupra keratinocitelor, fiind un anticorp anti-keratinocitar.",
                    "isCorrect": false
                }
            ]
        },
        {
            "questionText": "Primele doua injectii cu Ixekizumab se fac:",
            "answearVariants": [
                {
                    "answearVariantText": "La interval de doua saptamani.",
                    "isCorrect": false
                },
                {
                    "answearVariantText": "In aceeasi saptamana, la cateva zile distanta.",
                    "isCorrect": false
                },
                {
                    "answearVariantText": "In aceeasi zi, impreuna, la debutul terapiei cu Ixekizumab.",
                    "isCorrect": true
                },
                {
                    "answearVariantText": "Se poate folosi in locul lor stiloul autoinjector pre-umplut cu 160mg substanta activa.",
                    "isCorrect": false
                }
            ]
        },
        {
            "questionText": "In studiile pivotale ale Taltz, procentul de pacienti care ating raspunsuri PASI 75/90/100 la 12 saptamani de terapie este de (aproximativ):",
            "answearVariants": [
                {
                    "answearVariantText": "80/60/40",
                    "isCorrect": false
                },
                {
                    "answearVariantText": "90/70/40",
                    "isCorrect": true
                },
                {
                    "answearVariantText": "90/50/30",
                    "isCorrect": false
                },
                {
                    "answearVariantText": "80/60/40",
                    "isCorrect": false
                }
            ]
        },
        {
            "questionText": "Care este rolul IL-17A?",
            "answearVariants": [
                {
                    "answearVariantText": "IL-17A activeaza keratinocitele si productia acestora de peptide antimicrobiene si chemoatractanti ptr neutrofile.",
                    "isCorrect": false
                },
                {
                    "answearVariantText": "Este un declansator al raspunsului imun impotriva unor infectii extracelulare bacteriene ( (Klebsiella pneumoniae, Streptococcus pneumoniae) si fungice (Candida albicans).",
                    "isCorrect": false
                },
                {
                    "answearVariantText": "Toate.",
                    "isCorrect": true
                }
            ]
        },
        {
            "questionText": "Ce tip de celule produc IL-17A?",
            "answearVariants": [
                {
                    "answearVariantText": "Mastocite",
                    "isCorrect": true
                },
                {
                    "answearVariantText": "Neuroni",
                    "isCorrect": false
                },
                {
                    "answearVariantText": "Th17",
                    "isCorrect": true
                },
                {
                    "answearVariantText": "Miocite",
                    "isCorrect": false
                }
            ]
        },
        {
            "questionText": "Care este diferenta intre IgG1 si IgG4?",
            "answearVariants": [
                {
                    "answearVariantText": "In general, anticorpii de tip IgG4 au potential mai scazut de a activa complementul, comparativ cu IgG1.",
                    "isCorrect": true
                },
                {
                    "answearVariantText": "In general, anticorpii de tip IgG1 au potential mai scazut de a activa complementul, comparativ cu IgG4.",
                    "isCorrect": false
                },
                {
                    "answearVariantText": "Nu exista diferente.",
                    "isCorrect": false
                }
            ]
        },
        {
            "questionText": "Pentru Taltz, timpul mediu de injumatatire plasmatica prin eliminare, estimat din analiza farmacocinetica la pacientii cu psoriazis in placi este de:",
            "answearVariants": [
                {
                    "answearVariantText": "13 zile",
                    "isCorrect": true
                },
                {
                    "answearVariantText": "14 zile",
                    "isCorrect": false
                },
                {
                    "answearVariantText": "7 zile",
                    "isCorrect": false
                },
                {
                    "answearVariantText": "28 de zile",
                    "isCorrect": false
                }
            ]
        },
        {
            "questionText": "Referitor produsul ixekizumab:",
            "answearVariants": [
                {
                    "answearVariantText": "Fiecare stilou injector preumplut (autoinjector) contine ixekizumab 80 mg in 1 ml de solutie.",
                    "isCorrect": true
                },
                {
                    "answearVariantText": "Fiecare stilou injector preumplut (autoinjector) contine ixekizumab 80 mg in 2 ml de solutie.",
                    "isCorrect": false
                },
                {
                    "answearVariantText": "Este un anticorp monoclonal uman produs in celule MKTC (Monkey Kidney Tissue Culture).",
                    "isCorrect": false
                },
                {
                    "answearVariantText": "Este un anticorp monoclonal de tip IgG1.",
                    "isCorrect": false
                }
            ]
        },
        {
            "questionText": "Referitor la profilul de siguranta ixekizumab, care din afirmatiile de mai jos sunt adevarate?",
            "answearVariants": [
                {
                    "answearVariantText": "Cel mai frecvent raportate reactii adverse la medicament (RAM) au fost reactiile la locul de injectare si infectiile tractului respirator superior (cel mai frecvent rinofaringita).",
                    "isCorrect": true
                },
                {
                    "answearVariantText": "Profilul de siguranta este asemanator cu cel al adalimumab.",
                    "isCorrect": false
                },
                {
                    "answearVariantText": "Cel mai frecvent raportate reactii adverse la medicament (RAM) au fost candidoza si reactivarea infectiei TB latent.",
                    "isCorrect": false
                }
            ]
        },
        {
            "questionText": "Ixekizumab este o optiune terapeutica in tratamentul psoriazis-ului sever care tinteste:",
            "answearVariants": [
                {
                    "answearVariantText": "Factorul de necroza tumorala alpha (TNF-Alpha)",
                    "isCorrect": false
                },
                {
                    "answearVariantText": "Interleukinele 12/23",
                    "isCorrect": false
                },
                {
                    "answearVariantText": "Interleukina 17F",
                    "isCorrect": false
                },
                {
                    "answearVariantText": "Interleukina 17A",
                    "isCorrect": true
                }
            ]
        },
        {
            "questionText": "In studii, ce procent (aprox.) de pacienti tratati cu Taltz conf. RCP au atins raspuns PASI 90 la saptamana 12?",
            "answearVariants": [
                {
                    "answearVariantText": "40%",
                    "isCorrect": false
                },
                {
                    "answearVariantText": "50%",
                    "isCorrect": false
                },
                {
                    "answearVariantText": "60%",
                    "isCorrect": false
                },
                {
                    "answearVariantText": "70%",
                    "isCorrect": true
                }
            ]
        },
        {
            "questionText": "Care a fost comparatorul activ in studiile UNCOVER-2 si UNCOVER -3?",
            "answearVariants": [
                {
                    "answearVariantText": "Adalimumab",
                    "isCorrect": false
                },
                {
                    "answearVariantText": "Etanercept",
                    "isCorrect": true
                },
                {
                    "answearVariantText": "Infliximab",
                    "isCorrect": false
                }
            ]
        },
        {
            "questionText": "Care a fost comparatorul activ in studiul IXORA-S?",
            "answearVariants": [
                {
                    "answearVariantText": "Adalimumab",
                    "isCorrect": false
                },
                {
                    "answearVariantText": "Ustekinumab",
                    "isCorrect": true
                },
                {
                    "answearVariantText": "Infliximab",
                    "isCorrect": false
                }
            ]
        },
        {
            "questionText": "Care e raspunsul PASI mediu la saptamana 2 din studiile pivotale UNCOVER -2 si UNCOVER-3?",
            "answearVariants": [
                {
                    "answearVariantText": "PASI 50",
                    "isCorrect": true
                },
                {
                    "answearVariantText": "PASI 75",
                    "isCorrect": false
                },
                {
                    "answearVariantText": "PASI 90",
                    "isCorrect": false
                },
                {
                    "answearVariantText": "PASI 100",
                    "isCorrect": false
                }
            ]
        },
        {
            "questionText": "Care e raspunsul PASI mediu la saptamana 12 din studiile pivotale UNCOVER -2 si UNCOVER-3?",
            "answearVariants": [
                {
                    "answearVariantText": "PASI 50",
                    "isCorrect": false
                },
                {
                    "answearVariantText": "PASI 75",
                    "isCorrect": false
                },
                {
                    "answearVariantText": "PASI 90",
                    "isCorrect": true
                },
                {
                    "answearVariantText": "PASI 100",
                    "isCorrect": false
                }
            ]
        },
        {
            "questionText": "O imbunatatire clinica semnificativa a pruritului descris de pacientii cu psoriazis (scor NRS mai mic cu cel putin 4 puncte fata de valoarea initiala) a fost inregistrata in saptamana 12 in studiile UCOVER 2 si 3 la un procent de pacienti egal cu:",
            "answearVariants": [
                {
                    "answearVariantText": "17%",
                    "isCorrect": false
                },
                {
                    "answearVariantText": "61%",
                    "isCorrect": false
                },
                {
                    "answearVariantText": "83%",
                    "isCorrect": true
                },
                {
                    "answearVariantText": "Pruritul a ramas la fel",
                    "isCorrect": false
                }
            ]
        },
        {
            "questionText": "La pacientii cu un nivel de raspuns cutanat PASI 100, calitatea vietii este raportata a se ameliora, in medie, cu:",
            "answearVariants": [
                {
                    "answearVariantText": "52%",
                    "isCorrect": false
                },
                {
                    "answearVariantText": "85%",
                    "isCorrect": true
                },
                {
                    "answearVariantText": "100%",
                    "isCorrect": false
                },
                {
                    "answearVariantText": "63%",
                    "isCorrect": false
                }
            ]
        },
        {
            "questionText": "La pacientii cu un nivel de raspuns cutanat PASI 75, calitatea vietii este raportata a se ameliora, in medie, cu:",
            "answearVariants": [
                {
                    "answearVariantText": "52%",
                    "isCorrect": true
                },
                {
                    "answearVariantText": "85%",
                    "isCorrect": false
                },
                {
                    "answearVariantText": "100%",
                    "isCorrect": false
                },
                {
                    "answearVariantText": "63%",
                    "isCorrect": false
                }
            ]
        },
        {
            "questionText": "Au fost inregistrate neoplazii hematologice de tip limfoid sau leucemic in studiile cu Ixekizumab?",
            "answearVariants": [
                {
                    "answearVariantText": "Da",
                    "isCorrect": false
                },
                {
                    "answearVariantText": "Nu",
                    "isCorrect": true
                }
            ]
        },
        {
            "questionText": "In analiza la 2 ani (108 saptamani) a rezultatelor din studiul pivotal UNCOVER-3 s-a indicat ca procentele de pacienti care ating raspuns PASI 75/90/100 sunt de:",
            "answearVariants": [
                {
                    "answearVariantText": "76%, 64%, 46%",
                    "isCorrect": true
                },
                {
                    "answearVariantText": "76%, 64%, 23%",
                    "isCorrect": false
                },
                {
                    "answearVariantText": "64%, 54%, 43%",
                    "isCorrect": false
                },
                {
                    "answearVariantText": "76%, 70%, 46%",
                    "isCorrect": false
                }
            ]
        },
        {
            "questionText": "Pana in saptamana a 12-a, in studiile UNCOVER, frecventa cu care a fost raportata reactia a locul de injectare pentru Ixekizumab a fost de:",
            "answearVariants": [
                {
                    "answearVariantText": "50%",
                    "isCorrect": false
                },
                {
                    "answearVariantText": "33%",
                    "isCorrect": false
                },
                {
                    "answearVariantText": "10%",
                    "isCorrect": false
                },
                {
                    "answearVariantText": "17%",
                    "isCorrect": true
                }
            ]
        },
        {
            "questionText": "Procentul de pacienti care in studiile UNCOVER au dezvoltat anticorpi anti-medicament in titru mare si cu impact clinic asupra eficacitatii este de aproximativ:",
            "answearVariants": [
                {
                    "answearVariantText": "91%",
                    "isCorrect": false
                },
                {
                    "answearVariantText": "7%",
                    "isCorrect": false
                },
                {
                    "answearVariantText": "1.6%",
                    "isCorrect": true
                },
                {
                    "answearVariantText": "Anticorpii anti-medicament au intotdeauna un efect de diminuare a eficacitatii clinice, indiferent de titrul lor sau de alti factori.",
                    "isCorrect": false
                }
            ]
        },
        {
            "questionText": "Dozarea Ixekizumab nu tine cont de greutatea corporala a pacientilor sau de tratamentul lor anterior cu biologice:",
            "answearVariants": [
                {
                    "answearVariantText": "Adevarat doar pentru pacientii tratati anterior cu Etanercept.",
                    "isCorrect": false
                },
                {
                    "answearVariantText": "Adevarat pentru toti pacientii.",
                    "isCorrect": true
                },
                {
                    "answearVariantText": "Nu este adevarat.",
                    "isCorrect": false
                },
                {
                    "answearVariantText": "Aceasta situatie este valabila pentru toate biologicele.",
                    "isCorrect": false
                }
            ]
        },
        {
            "questionText": "Mecanismul de actiune al Ixekizumab este specific prin aceea ca:",
            "answearVariants": [
                {
                    "answearVariantText": "Inhiba interleukina care actioneaza direct asupra Keratinocitelor (IL-17A).",
                    "isCorrect": true
                },
                {
                    "answearVariantText": "Ihiba interleukina care are un efect biologic cunoscut doar in patogenia psoriazisului (IL-17A).",
                    "isCorrect": false
                },
                {
                    "answearVariantText": "Inhiba multiple citokine pro-inflamatorii, printre care IL-17A.",
                    "isCorrect": false
                },
                {
                    "answearVariantText": "Actioneaza asupra keratinocitelor, fiind un anticorp anti-keratinocitar.",
                    "isCorrect": false
                }
            ]
        },
        {
            "questionText": "Numarul de injectii la prima administrare (de novo) de Taltz este de:",
            "answearVariants": [
                {
                    "answearVariantText": "2",
                    "isCorrect": true
                },
                {
                    "answearVariantText": "4",
                    "isCorrect": false
                },
                {
                    "answearVariantText": "3",
                    "isCorrect": false
                },
                {
                    "answearVariantText": "1",
                    "isCorrect": false
                }
            ]
        },
        {
            "questionText": "Frecventa de administrare in primele 3 luni ptr Taltz, dupa prima doza de incarcare este de:",
            "answearVariants": [
                {
                    "answearVariantText": "1 injectie la 2 saptamani",
                    "isCorrect": true
                },
                {
                    "answearVariantText": "2 injectii la 2 saptamani",
                    "isCorrect": false
                },
                {
                    "answearVariantText": "2 injectii pe saptamana",
                    "isCorrect": false
                },
                {
                    "answearVariantText": "1 injectie la 4 saptamani",
                    "isCorrect": false
                }
            ]
        },
        {
            "questionText": "Volumul de substanta din fiecare pen autoinjector de Taltz este de aproximativ:",
            "answearVariants": [
                {
                    "answearVariantText": "1 mL",
                    "isCorrect": true
                },
                {
                    "answearVariantText": "5 mL",
                    "isCorrect": false
                },
                {
                    "answearVariantText": "10 mL",
                    "isCorrect": false
                },
                {
                    "answearVariantText": "2 mL",
                    "isCorrect": false
                }
            ]
        },
        {
            "questionText": "Conform protocolului de prescriere pentru tratamente biologice in vigoare, care dintre cele de mai jos sunt contraindicatii absolute pentru initierea tratamentului cu biologic:",
            "answearVariants": [
                {
                    "answearVariantText": "Infectia cu virusul hepatitei C",
                    "isCorrect": false
                },
                {
                    "answearVariantText": "PUVA-terapie peste 200 sedinte",
                    "isCorrect": false
                },
                {
                    "answearVariantText": "Infectii severe active precum: stare septica, abcese, tuberculoza activa, infectii oportuniste;",
                    "isCorrect": true
                },
                {
                    "answearVariantText": "Infectia HIV sau SIDA",
                    "isCorrect": false
                }
            ]
        },
        {
            "questionText": "Conform protocolului de prescriere pentru terapiile biologice in vigoare pentru psoriazis in placi moderat-sever, raspunsul adecvat se defineste prin:",
            "answearVariants": [
                {
                    "answearVariantText": "Scaderea cu 50% a scorului PASI fata de momentul initial si scaderea cu 5 puncte a scorului DLQI fata de momentul initial.",
                    "isCorrect": true
                },
                {
                    "answearVariantText": "Scaderea cu 50% a scorului PASI fata de momentul initial SAU scaderea cu 5 puncte a scorului DLQI fata de momentul initial.",
                    "isCorrect": false
                },
                {
                    "answearVariantText": "Scaderea cu 75% a scorului PASI fata de momentul initial SAU scaderea cu 5 puncte a scorului DLQI fata de momentul initial.",
                    "isCorrect": false
                },
                {
                    "answearVariantText": "Scaderea cu 50% a scorului PASI fata de momentul initial SI scaderea cu 4 puncte a scorului DLQI fata de momentul initial.",
                    "isCorrect": false
                }
            ]
        },
        {
            "questionText": "Conform protocolului de prescriere pentru terapiile biologice in vigoare pentru psoriazis in placi moderat-sever, schimbarea tratamentului se impune:",
            "answearVariants": [
                {
                    "answearVariantText": "In cazul pacientilor care nu raspund adecvat la la tratamentul cu un agent Biologic.",
                    "isCorrect": true
                },
                {
                    "answearVariantText": "In cazul pacientilor care au dezvoltat o reactie adversa care sa impuna oprirea respectivului agent biologic.",
                    "isCorrect": true
                },
                {
                    "answearVariantText": "Daca pacientul isi muta domiciliul.",
                    "isCorrect": false
                },
                {
                    "answearVariantText": "Daca se schimba medicul curant.",
                    "isCorrect": false
                }
            ]
        },
        {
            "questionText": "Urmatoarele sunt evaluari ale status-ului calitatii vietii in legatura cu afectiunea psoriazis:",
            "answearVariants": [
                {
                    "answearVariantText": "DLQI",
                    "isCorrect": true
                },
                {
                    "answearVariantText": "PANSS",
                    "isCorrect": false
                },
                {
                    "answearVariantText": "Scala SANSS",
                    "isCorrect": false
                },
                {
                    "answearVariantText": "SFS",
                    "isCorrect": false
                }
            ]
        },
        {
            "questionText": "Care dintre cele de mai jos sunt folosite pentru evaluarea raspunsului la tratament biologic ptr psoriazis, conform protocolului terapeutic in vigoare:",
            "answearVariants": [
                {
                    "answearVariantText": "Status-ul clinic al leziunilor",
                    "isCorrect": false
                },
                {
                    "answearVariantText": "Impactul psiho-socio-emotional al psoriazis asupra vietii pacientului/pacientei",
                    "isCorrect": false
                },
                {
                    "answearVariantText": "A si B",
                    "isCorrect": true
                },
                {
                    "answearVariantText": "Status-ul musculo-scheletal",
                    "isCorrect": false
                }
            ]
        },
        {
            "questionText": "Care dintre patologiile de mai jos sunt asociate comorbid cu psoriazisul?",
            "answearVariants": [
                {
                    "answearVariantText": "Artrita psoriatica",
                    "isCorrect": true
                },
                {
                    "answearVariantText": "Schizofrenia",
                    "isCorrect": false
                },
                {
                    "answearVariantText": "Depresia",
                    "isCorrect": true
                },
                {
                    "answearVariantText": "Tulburare bipolara",
                    "isCorrect": false
                }
            ]
        },
        {
            "questionText": "Care din optiunile de tratament de mai jos sunt folosite in tratamentul psoriazis-ului?",
            "answearVariants": [
                {
                    "answearVariantText": "Metotrexat",
                    "isCorrect": true
                },
                {
                    "answearVariantText": "Anti-IL6",
                    "isCorrect": false
                },
                {
                    "answearVariantText": "Anti-TNF alfa",
                    "isCorrect": true
                },
                {
                    "answearVariantText": "Anti-IL17A",
                    "isCorrect": true
                }
            ]
        },
        {
            "questionText": "Referitor la profilul de siguranta al Taltz, din studii acesta este asemanator cu cel al:",
            "answearVariants": [
                {
                    "answearVariantText": "Etanercept",
                    "isCorrect": true
                },
                {
                    "answearVariantText": "Adalimumab",
                    "isCorrect": false
                },
                {
                    "answearVariantText": "Infliximab",
                    "isCorrect": false
                },
                {
                    "answearVariantText": "Ustekinumab",
                    "isCorrect": true
                }
            ]
        },
        {
            "questionText": "Conform RCP-ului produsului, tratamentul cu ixekizumab este indicat pentru:",
            "answearVariants": [
                {
                    "answearVariantText": "Tratamentul psoriazisului in placi moderat pana la sever la adulti care sunt eligibili pentru terapie sistemica.",
                    "isCorrect": true
                },
                {
                    "answearVariantText": "Tratamentul pacientilor adulti cu psoriazis in placi in forme moderate pana la severe care au prezentat fie rezistenta, fie contraindicatii, fie intoleranta la alte tratamente sistemice incluzand ciclosporina, metotrexatul sau psoralenul si radiatiile ultraviolete A (PUVA).",
                    "isCorrect": false
                }
            ]
        },
        {
            "questionText": "Taltz se administreaza:",
            "answearVariants": [
                {
                    "answearVariantText": "Prin injectie intramusculara",
                    "isCorrect": false
                },
                {
                    "answearVariantText": "Prin injectie subcutanata",
                    "isCorrect": true
                },
                {
                    "answearVariantText": "Prin perfuzie intravenoasa",
                    "isCorrect": false
                },
                {
                    "answearVariantText": "Pe cale orala",
                    "isCorrect": false
                }
            ]
        },
        {
            "questionText": "In perioada de intretinere, doza de administrare Taltz conform RCP este de:",
            "answearVariants": [
                {
                    "answearVariantText": "160 mg pe luna",
                    "isCorrect": false
                },
                {
                    "answearVariantText": "160 mg la 4 saptamani",
                    "isCorrect": false
                },
                {
                    "answearVariantText": "80 mg pe luna",
                    "isCorrect": false
                },
                {
                    "answearVariantText": "80 mg la 4 saptamani",
                    "isCorrect": true
                }
            ]
        },
        {
            "questionText": "Stiloul autoinjector Taltz:",
            "answearVariants": [
                {
                    "answearVariantText": "Are acul pre-atasat",
                    "isCorrect": true
                },
                {
                    "answearVariantText": "Necesita dozare individuala",
                    "isCorrect": false
                },
                {
                    "answearVariantText": "Se poate refolosi pentru o a doua injectie",
                    "isCorrect": false
                },
                {
                    "answearVariantText": "Este disponibil doar in Romania",
                    "isCorrect": false
                }
            ]
        },
        {
            "questionText": "Tratamentul cu Taltz a devenit disponibil in afara studiilor clinice pentru prima oara in lume:",
            "answearVariants": [
                {
                    "answearVariantText": "In 2015",
                    "isCorrect": false
                },
                {
                    "answearVariantText": "In 2016",
                    "isCorrect": true
                },
                {
                    "answearVariantText": "In 2017",
                    "isCorrect": false
                },
                {
                    "answearVariantText": "In 2014",
                    "isCorrect": false
                }
            ]
        },
        {
            "questionText": "Acul din stiloul autoinjector Taltz:",
            "answearVariants": [
                {
                    "answearVariantText": "Este ascuns inainte de injectie si nu poate fi scos.",
                    "isCorrect": true
                },
                {
                    "answearVariantText": "Trebuie atasat.",
                    "isCorrect": false
                },
                {
                    "answearVariantText": "Trebuie scos si aruncat dupa injectie.",
                    "isCorrect": false
                }
            ]
        },
        {
            "questionText": "Adresa Lilly pentru corespondenta electronica specific destinata pentru medicii dermatologi din Romania este:",
            "answearVariants": [
                {
                    "answearVariantText": "dermalilly@lilly.com",
                    "isCorrect": true
                },
                {
                    "answearVariantText": "office@lilly.com",
                    "isCorrect": false
                },
                {
                    "answearVariantText": "osteolilly@lilly.com",
                    "isCorrect": false
                },
                {
                    "answearVariantText": "med_buc@lilly.com",
                    "isCorrect": false
                }
            ]
        },
        {
            "questionText": "In cazul anticorpilor monoclonali umanizati, locusul imunoglobulinei G din genomul murin este:",
            "answearVariants": [
                {
                    "answearVariantText": "Intact.",
                    "isCorrect": true
                },
                {
                    "answearVariantText": "Inlocuit cu locusul uman.",
                    "isCorrect": false
                },
                {
                    "answearVariantText": "Lipseste din genom.",
                    "isCorrect": false
                },
                {
                    "answearVariantText": "Soarecii nu sunt folositi la dezvoltarea de anticorpi monoclonali.",
                    "isCorrect": false
                }
            ]
        },
        {
            "questionText": "In cazul anticorpilor monoclonali umani, locusul imunoglobulinei G din genomul murin este:",
            "answearVariants": [
                {
                    "answearVariantText": "Intact.",
                    "isCorrect": false
                },
                {
                    "answearVariantText": "Inlocuit cu locusul uman.",
                    "isCorrect": true
                },
                {
                    "answearVariantText": "Lipseste din genom.",
                    "isCorrect": false
                },
                {
                    "answearVariantText": "Soarecii nu sunt folositi la dezvoltarea de anticorpi monoclonali.",
                    "isCorrect": false
                }
            ]
        },
        {
            "questionText": "Pentru dezvoltarea anticorpilor monoclonali umani, in etapele initiale se prelucreaza material genetic provenind de la:",
            "answearVariants": [
                {
                    "answearVariantText": "Soarece",
                    "isCorrect": true
                },
                {
                    "answearVariantText": "Om",
                    "isCorrect": false
                },
                {
                    "answearVariantText": "Celule ovariene de hamster chinezesc",
                    "isCorrect": false
                }
            ]
        },
        {
            "questionText": "Pentru etapele finale, de productie a anticorpilor monoclonali umani se folosesc celule:",
            "answearVariants": [
                {
                    "answearVariantText": "Murine",
                    "isCorrect": false
                },
                {
                    "answearVariantText": "Umane",
                    "isCorrect": false
                },
                {
                    "answearVariantText": "Ovariene de hamster chinezesc (CHO)",
                    "isCorrect": true
                }
            ]
        },
        {
            "questionText": "Eventualele procese de inginerie genetica care modifica structura si proprietatile unui anticorp monoclonal, cu scopul de a-i spori calitatile clinice, sunt implementate pentru:",
            "answearVariants": [
                {
                    "answearVariantText": "Anticorpii umani",
                    "isCorrect": false
                },
                {
                    "answearVariantText": "Anticorpii umanizati",
                    "isCorrect": true
                },
                {
                    "answearVariantText": "Toti anticorpii monoclonali",
                    "isCorrect": false
                },
                {
                    "answearVariantText": "Astfel de procese nu sunt implementabile, datorita costurilor foarte mari",
                    "isCorrect": false
                }
            ]
        },
        {
            "questionText": "Un anticorp umanizat contine o structura de imunoglobulina in mare parte umana; exista o portiune foarte mica care  este de origine murina, iar aceasta reprezinta:",
            "answearVariants": [
                {
                    "answearVariantText": "<5% din structura",
                    "isCorrect": true
                },
                {
                    "answearVariantText": "5-10% din structura",
                    "isCorrect": false
                },
                {
                    "answearVariantText": "Practic pot fi anticorpi aproape in totalitate murinici, dar care se numesc umanizati pentru ca contin partea activa Fab de origine umana",
                    "isCorrect": false
                }
            ]
        },
        {
            "questionText": "Imunogenicitatea este proprietatea unei substante (de regula macromolecula proteica, precum un anticorp terapeutic) de a fi recunoscuta ca non-self si de a initia un raspuns imun impotriva sa",
            "answearVariants": [
                {
                    "answearVariantText": "Adevarat",
                    "isCorrect": true
                },
                {
                    "answearVariantText": "Fals",
                    "isCorrect": false
                },
                {
                    "answearVariantText": "Raspunsul imun ce apare este de tip umoral, caracterizat prin dezvoltarea de anticorpi anti-substanta imunogena",
                    "isCorrect": true
                }
            ]
        },
        {
            "questionText": "Orice structura proteica provenita din afara corpului poate fi imunogena, indiferent daca este:",
            "answearVariants": [
                {
                    "answearVariantText": "Umana",
                    "isCorrect": true
                },
                {
                    "answearVariantText": "Umanizata",
                    "isCorrect": true
                },
                {
                    "answearVariantText": "Chimerica",
                    "isCorrect": true
                },
                {
                    "answearVariantText": "Murinica",
                    "isCorrect": true
                }
            ]
        },
        {
            "questionText": "Exista un potential de aparitie a anticorpilor anti-medicament indreptati impotriva:",
            "answearVariants": [
                {
                    "answearVariantText": "Produselor biologice umane",
                    "isCorrect": true
                },
                {
                    "answearVariantText": "Produselor biologice umanizate",
                    "isCorrect": true
                },
                {
                    "answearVariantText": "Produselor non-biologice, molecule mici de sinteza chimica",
                    "isCorrect": false
                },
                {
                    "answearVariantText": "Produselor medicamentoase in general",
                    "isCorrect": false
                }
            ]
        },
        {
            "questionText": "Care dintre factorii de mai jos influenteaza imunogenicitatea unei molecule biologice?",
            "answearVariants": [
                {
                    "answearVariantText": "Structura moleculei",
                    "isCorrect": true
                },
                {
                    "answearVariantText": "Regimul alimentar",
                    "isCorrect": false
                },
                {
                    "answearVariantText": "Prezenta anumitor contaminanti in produsul biologic administrat",
                    "isCorrect": true
                },
                {
                    "answearVariantText": "Statusul cardio-vascular al pacientului in cauza",
                    "isCorrect": false
                }
            ]
        },
        {
            "questionText": "Care dintre factorii de mai jos influenteaza imunogenicitatea unei molecule biologice?",
            "answearVariants": [
                {
                    "answearVariantText": "Patologia heredo-colaterala a pacientului in cauza",
                    "isCorrect": false
                },
                {
                    "answearVariantText": "Calea de administrare pentru produsul biologic respectiv",
                    "isCorrect": true
                },
                {
                    "answearVariantText": "Patologia curenta a pacientului in cauza",
                    "isCorrect": true
                },
                {
                    "answearVariantText": "Gradul de agregare al biologicului respectiv",
                    "isCorrect": true
                }
            ]
        },
        {
            "questionText": "Efectele practice potentiale ale anticorpilor anti-medicament pot fi:",
            "answearVariants": [
                {
                    "answearVariantText": "Nici un efect",
                    "isCorrect": false
                },
                {
                    "answearVariantText": "Timp de injumatatire al medicamentului diminuat",
                    "isCorrect": false
                },
                {
                    "answearVariantText": "Celarance crescut pentru produsul in cauza",
                    "isCorrect": false
                },
                {
                    "answearVariantText": "Toate de mai sus",
                    "isCorrect": true
                }
            ]
        }
    ],
    "cardQA": [
        {
            "question": "Afectarea scalpului in psoriazisul in placi poate fi izolata (fara leziuni pe corp)?",
            "answear": "Adevarat"
        },
        {
            "question": "In cazul afectarii scalpului in psoriazisul in placi severitatea maxima este reprezentata prin intinderea leziunilor, care pot acoperi scalpul...",
            "answear": "In intregime"
        },
        {
            "question": "Leziunile psoriazice de la nivelul scalpului sunt dificil de tratat cu medicatie topica si cu fototerapie, motivul principal fiind prezenta...",
            "answear": "Parului"
        },
        {
            "question": "Afectarea unghiala este foarte frecventa in psoriazis.",
            "answear": "Adevarat"
        },
        {
            "question": "Afectarea unghiala din psoriazis poate implica atât matricea unghiala, precum si...............unghial",
            "answear": "Patul"
        },
        {
            "question": "In afectarea unghiala din psoriazis unele leziuni sunt discrete, avand aspectul unor.......",
            "answear": "Linii fine"
        },
        {
            "question": "Afectarea unghiala din psoriazis poate fi severa, un exemplu fiind.......extinsa",
            "answear": "Onicoliza"
        },
        {
            "question": "Afectarea palmo-plantara din psoriazisul in placi poate fi usoara, reprezentata de zone de eritem...",
            "answear": "Discret"
        },
        {
            "question": "Afectarea palmo-plantara din psoriazisul in placi poate fi usoara, reprezentata de zone de tegument...",
            "answear": "Uscat"
        },
        {
            "question": "Afectarea palmo-plantara din psoriazisul in placi poate fi severa, reprezentata de zone de tegument cu...",
            "answear": "Fisuri"
        },
        {
            "question": "Afectarea palmo-plantara poate fi inclusa in tabloul psoriazisului in placi?",
            "answear": "Adevarat"
        },
        {
            "question": "Afectarea psoriazica palmo-plantara poate fi diferita fata de psoriazisul in placi?",
            "answear": "Adevarat"
        },
        {
            "question": "Exista psoriazis palmo-plantar...",
            "answear": "In placi"
        },
        {
            "question": "Exista psoriazis palmo-plantar...",
            "answear": "Pustulos"
        },
        {
            "question": "Protocolul terapeutic permite prescrierea terapiilor biologice in psoriazisul palmo-plantar in placi?",
            "answear": "Adevarat"
        },
        {
            "question": "Terapiile biologice pot fi prescrise in psoriazisul palmo-plantar pustulos doar...",
            "answear": "Off-label"
        },
        {
            "question": "Din punct de vedere functional, afectarea palmo-plantara in psoriazis este...",
            "answear": "Invalidanta"
        },
        {
            "question": "In literatura de specialitate frecventa de aparitie a leziunilor psoriazice la nivelul scalpului este de aproximativ...%",
            "answear": "50"
        },
        {
            "question": "In literatura de specialitate frecventa de aparitie a leziunilor psoriazice la nivel palmo-plantar este de aproximativ...%",
            "answear": "14"
        },
        {
            "question": "In literatura de specialitate frecventa de aparitie a leziunilor psoriazice la nivel genital este de aproximativ...%",
            "answear": "50"
        },
        {
            "question": "Scorul care evalueaza severitatea afectarii unghiale in psoriazis este...",
            "answear": "NAPSI"
        },
        {
            "question": "Scorul care evalueaza severitatea afectarii scalpului in psoriazis este...",
            "answear": "PSSI"
        },
        {
            "question": "Scorul care evalueaza severitatea afectarii palmo-plantare in psoriazis este...",
            "answear": "PPASI"
        },
        {
            "question": "Valoarea maxima a scorului PSSI (afectarea cea mai grava) este...",
            "answear": "72"
        },
        {
            "question": "In subanaliza studiilor UNCOVER dedicate eficacitatii ixekizumab asupra leziunilor psoriazice de la nivelul scalpului, procentul pacientilor care au avut un scor PSSI 0 (remisiunea completa) la 12 saptamâni a fost aproximativ...%",
            "answear": "70"
        },
        {
            "question": "In subanaliza studiilor UNCOVER dedicate eficacitatii ixekizumab asupra leziunilor psoriazice de la nivelul scalpului, procentul pacientilor care au mentinut scorul PSSI 0 (remisiunea completa) pâna la 60 de saptamâni a fost aproximativ...%",
            "answear": "80"
        },
        {
            "question": "Terapia cu ixekizumab a fost superioara etanercept sau placebo in ameliorarea leziunilor psoriazice de la nivelul scalpului, cu eficacitate statistic semnificativa incepând din saptamâna...",
            "answear": "1"
        },
        {
            "question": "Pe parcursul intregii vieti, un pacient cu psoriazis poate dezvolta si afectare unghiala cu o probabilitate mai mare de ...%",
            "answear": "80"
        },
        {
            "question": "In subanaliza studiilor UNCOVER dedicate eficacitatii ixekizumab asupra leziunilor psoriazice de la nivel unghial, procentul pacientilor care au avut un scor NAPSI 0 (remisiunea completa) la 12 saptamâni a fost aproximativ ...%",
            "answear": "17"
        },
        {
            "question": "In subanaliza studiilor UNCOVER dedicate eficacitatii ixekizumab asupra leziunilor psoriazice de la nivel unghial, procentul pacientilor care au mentinut scorul NAPSI 0 (remisiunea completa) pâna la 60 de saptamâni a fost mai mare de ...%",
            "answear": "55"
        },
        {
            "question": "Terapia cu ixekizumab a fost superioara etanercept sau placebo in ameliorarea leziunilor psoriazice de la nivel unghial, in evaluarea de la saptamâna...",
            "answear": "12"
        },
        {
            "question": "Studiul IXORA-Q a evaluat eficacitatea ixekizumab in psoriazisul cu afectare genitala; la saptamâna 12 procentul de pacienti cu un grad de afectare 0 sau aproape 0 a fost de ...%",
            "answear": "73"
        },
        {
            "question": "In studiul IXORA-Q o ameliorare a pruritului genital la pacientii cu psoriazis al acestei regiuni a fost considerata semnificativa clinic daca a depasit pe scala NRS (0-10) un numar de cel putin ... puncte",
            "answear": "4"
        },
        {
            "question": "In studiul IXORA-Q procentul de pacienti care au avut o ameliorare a pruritului genital semnificativa clinic (adica de cel putin 4 puncte) la saptamâna 12 a fost de ...%",
            "answear": "60%"
        },
        {
            "question": "Valoarea maxima a scorului PPASI (afectarea cea mai grava) este...",
            "answear": "72%"
        },
        {
            "question": "In subanaliza studiilor UNCOVER dedicate eficacitatii ixekizumab asupra leziunilor psoriazice palmo-plantare, procentul pacientilor care au avut un scor PPASI 0 (remisiunea completa) la 12 saptamâni a fost aproximativ ...%",
            "answear": "67"
        },
        {
            "question": "In studiul UNCOVER-3 procentul de pacienti care au mentinut un scor de afectare palmo-plantara PPASI de 0 a fost de aproximativ ...%",
            "answear": "60"
        }
    ],
    "treatmentQuestions": [
        {
            "questionText": "Pacientii care sufera de artrita psoriatica prezinta simptome:",
            "answearVariants": [
                {
                    "answearVariantText": "La nivelul articulatiilor, tendoanelor, pielii si unghiilor",
                    "isCorrect": true
                },
                {
                    "answearVariantText": "Doar la nivel cutanat",
                    "isCorrect": false
                },
                {
                    "answearVariantText": "Asemanatoare cu cele intalnite la pacientii cu artroza",
                    "isCorrect": false
                }
            ]
        },
        {
            "questionText": "Despre artrita psoriazica putem spune ca urmatoarele afirmatii sunt adevarate:",
            "answearVariants": [
                {
                    "answearVariantText": "O afectiune cronica, inflamatorie, a articulatiilor si tendoanelor, asociata cu psoriazisul",
                    "isCorrect": true
                },
                {
                    "answearVariantText": "Nu face parte din familia spondilartritelor",
                    "isCorrect": false
                },
                {
                    "answearVariantText": "Face parte din familia spondilartritelor, fiind o spondilatrita axiala",
                    "isCorrect": false
                }
            ]
        },
        {
            "questionText": "Despre artrita psoriazica putem spune ca urmatoarele afirmatii sunt adevarate:",
            "answearVariants": [
                {
                    "answearVariantText": "Este o spondilatrita (cu afectare de regula periferica)",
                    "isCorrect": true
                },
                {
                    "answearVariantText": "O afectiune cronica, inflamatorie, a articulatiilor si tendoanelor, ce nu este asociata cu psoriazisul",
                    "isCorrect": false
                },
                {
                    "answearVariantText": "Ca si alte tipuri de spondilartrite, afecteaza mai degraba osul decat structurile articulare",
                    "isCorrect": false
                }
            ]
        },
        {
            "questionText": "Din punct de vedere istoric, despre artrita psoriazica se poate spune ca:",
            "answearVariants": [
                {
                    "answearVariantText": "Asocierea dintre aceasta si sproriazis a fost facuta din 1818",
                    "isCorrect": false
                },
                {
                    "answearVariantText": "A fost recunoscuta oficial ca entitate patologica distincta (de sine statatoare) in 1964",
                    "isCorrect": false
                },
                {
                    "answearVariantText": "Ambele de mai sus",
                    "isCorrect": true
                }
            ]
        },
        {
            "questionText": "Exista mai multe tipuri de artrita psoriazica, printre care:",
            "answearVariants": [
                {
                    "answearVariantText": "Oligoartrita asimetrica",
                    "isCorrect": true
                },
                {
                    "answearVariantText": "Forma poliarticulara, relativ asemanatoare cu poliartrita reumatoida",
                    "isCorrect": true
                },
                {
                    "answearVariantText": "Forma cu spondilartrita axiala predominanta",
                    "isCorrect": true
                }
            ]
        },
        {
            "questionText": "Frecventa cu care artrita psoriazica apare la pacientii cu psoriazis este de:",
            "answearVariants": [
                {
                    "answearVariantText": "45%",
                    "isCorrect": false
                },
                {
                    "answearVariantText": "30%",
                    "isCorrect": true
                },
                {
                    "answearVariantText": "Un grad de afectare articulara este prezent la fiecare pacient cu psoriazis",
                    "isCorrect": false
                }
            ]
        },
        {
            "questionText": "In artrita psoriazica modificarile de la nivelul unghiilor se intalnesc:",
            "answearVariants": [
                {
                    "answearVariantText": "Destul de rar",
                    "isCorrect": false
                },
                {
                    "answearVariantText": "La 80% dintre pacienti sau chiar mai mult",
                    "isCorrect": true
                },
                {
                    "answearVariantText": "Modificarile unghiale sunt asociate doar cu psoriazisul si nu apar la cazurile care prezinta si AP",
                    "isCorrect": false
                }
            ]
        },
        {
            "questionText": "In artrita psoriazica modificarile de la nivel cutanat (leziunile de psoriazis) se intalnesc:",
            "answearVariants": [
                {
                    "answearVariantText": "Foarte frecvent, la aprox. 90% dintre pacienti",
                    "isCorrect": true
                },
                {
                    "answearVariantText": "La 100% dintre pacienti",
                    "isCorrect": false
                },
                {
                    "answearVariantText": "Variabil, leziunile de psoriazis pot sa fie prezente sau nu la un pacient cu artrita psoriazica",
                    "isCorrect": false
                }
            ]
        },
        {
            "questionText": "Despre evolutia artritei poriazice:",
            "answearVariants": [
                {
                    "answearVariantText": "Poate conduce la eroziuni osoase si deformatii ale articulatiilor afectate",
                    "isCorrect": true
                },
                {
                    "answearVariantText": "Chiar si cele mai bune tratamente actuale pot opri, dar nu repara distrugerea articulatiilor, asadar oprirea progresiei bolii articulare trebuie sa reprezinte obiectivul terapiei",
                    "isCorrect": true
                },
                {
                    "answearVariantText": "Nici o afirmatie nu este corecta",
                    "isCorrect": false
                }
            ]
        },
        {
            "questionText": "Despre diagnosticul de artrita psoriazica stim ca:",
            "answearVariants": [
                {
                    "answearVariantText": "Nu exista disponibile teste specifice de diagnostic pozitiv",
                    "isCorrect": true
                },
                {
                    "answearVariantText": "Din punct de vedere clinic, este foarte facila diferentierea diagnostic intre artrita psoriazica si poliartrita reumatoida",
                    "isCorrect": false
                },
                {
                    "answearVariantText": "Diagnosticul AP este unul clinic (uneori de excludere)",
                    "isCorrect": true
                }
            ]
        },
        {
            "questionText": "Epidemiologia artritei psoriazice:",
            "answearVariants": [
                {
                    "answearVariantText": "Incidenta anuala a bolii este de 2-3% dintre pacientii cu psoriazis pe an",
                    "isCorrect": true
                },
                {
                    "answearVariantText": "Prevalenta bolii este de 30% dintre pacientii cu psoriazis",
                    "isCorrect": true
                },
                {
                    "answearVariantText": "Unele studii plaseaza prevalenta artritei psoriazice si la 42% intre pacientii cu psoriazis",
                    "isCorrect": true
                }
            ]
        },
        {
            "questionText": "Distributia cazurilor de artrita psoriazica:",
            "answearVariants": [
                {
                    "answearVariantText": "Este egala intre sexe",
                    "isCorrect": true
                },
                {
                    "answearVariantText": "Este grupata in jurul mediei de varsta de 44 ani (35 – 45 ani)",
                    "isCorrect": true
                },
                {
                    "answearVariantText": "Afectarea unghiala si a scalpului este asociata in mod caracteristic cu aparitia AP",
                    "isCorrect": true
                }
            ]
        },
        {
            "questionText": "Ca si etiopatogenie pentru artrita psoriazica stim ca:",
            "answearVariants": [
                {
                    "answearVariantText": "Activarea celulelor dentritice si activarea limfocitara T este importanta, la fel ca si in cazul psoriazisului",
                    "isCorrect": true
                },
                {
                    "answearVariantText": "Spre deosebire de psoriazis, la AP exista o pregnanta activare limfocitara B si secretie anormala de anto-anticorpi",
                    "isCorrect": false
                },
                {
                    "answearVariantText": "Atat celulele Th1, cat si celulele Th17 sunt importante in fiziopatologia artritei psoriazice",
                    "isCorrect": true
                }
            ]
        },
        {
            "questionText": "La nivelul articular, IL-17 este importanta in fiziopatologie pentru ca:",
            "answearVariants": [
                {
                    "answearVariantText": "Activeaza diferite tipuri de celule (osteoclaste, osteoblaste, fibroblaste, macrofage, neutrofile) si induce distrugerea structurilor aticulare",
                    "isCorrect": true
                },
                {
                    "answearVariantText": "Actioneaza impreuna cu alte citokine proinflamatorii, precum IL-22 si TNF-Alpha",
                    "isCorrect": true
                },
                {
                    "answearVariantText": "Interleukinele proinflamatorii IL-1 si IL-6 nu au nici un rol in artrita psoriazica",
                    "isCorrect": false
                }
            ]
        },
        {
            "questionText": "Ce afirmatii sunt adevarate despre fiziopatologia artritei psoriazice?",
            "answearVariants": [
                {
                    "answearVariantText": "Factorii declansatori initiali nu sunt cunoscuti, dar se stie ca simptomele de AP sunt cauzate de hiperplazia epidermului la nivel articular",
                    "isCorrect": false
                },
                {
                    "answearVariantText": "IL-17 prezinta efecte patologice importante asupra fibloblastelor/ sinoviocitelor si osteoclastelor, asa cum in piele actioneaza asupra keratinocitelor",
                    "isCorrect": true
                },
                {
                    "answearVariantText": "Celulele dendritice, macrofagele si alte celule prezentatoare de antigen comanda semnalele proinflamatorii care produc atat psoriazisul cat si AP la unii pacienti",
                    "isCorrect": true
                }
            ]
        },
        {
            "questionText": "Despre tratamentul indicat in cazurile de artrita psoriazica:",
            "answearVariants": [
                {
                    "answearVariantText": "Initierea pe terapii biologice este indicata in stadiile foarte precoce ale afectiunii",
                    "isCorrect": false
                },
                {
                    "answearVariantText": "In timp ce AINS sunt indicate de regula ca prima linie terapeutica, cazurile rapid progresive, fara raspuns adecvat la terapiile remisive clasice, pot fi tratate precoce cu biologice",
                    "isCorrect": true
                },
                {
                    "answearVariantText": "Initierea pe terapii biologice este indicata in stadiile tardive ale afectiunii",
                    "isCorrect": false
                }
            ]
        },
        {
            "questionText": "Ixekizumab prezinta indicatie aprobata in artrita psoriazica:",
            "answearVariants": [
                {
                    "answearVariantText": "Pentru toate cazurile care sunt insotite si de psoriazis",
                    "isCorrect": false
                },
                {
                    "answearVariantText": "Pentru cazurile de boala activa la care raspunsul terapeutic a fost inadecvat sau cu intoleranta la administrarea unuia sau mai multor medicamente antireumatice modificatoare ale bolii",
                    "isCorrect": true
                },
                {
                    "answearVariantText": "In administrare ca monoterapie sau in asociere cu metotrexat",
                    "isCorrect": true
                }
            ]
        },
        {
            "questionText": "Pentru indicatia in artrita psoriazica, ixekizumab a fost studiat intr-un program clinic:",
            "answearVariants": [
                {
                    "answearVariantText": "Limitat la subanalize ale studiilor clinice din psoriazis",
                    "isCorrect": false
                },
                {
                    "answearVariantText": "Dedicat pentru AP, cu studii randomizate, controlate, multicentrice",
                    "isCorrect": true
                },
                {
                    "answearVariantText": "A pastrat practica de comparatie clinica cu etanercept, aplicata si la studiile din psoriazis",
                    "isCorrect": false
                }
            ]
        },
        {
            "questionText": "Pentru indicatia in artrita psoriazica, ixekizumab a fost studiat intru-un program clinic:",
            "answearVariants": [
                {
                    "answearVariantText": "Care a inclus studii separate pe pacienti bio-naivi si pacienti cu esec anterior la terapia anti-TNF",
                    "isCorrect": true
                },
                {
                    "answearVariantText": "Care a folosit adalimumabul ca si comparator activ",
                    "isCorrect": false
                },
                {
                    "answearVariantText": "Studiul SPIRIT-P1 a inclus un brat de referinta cu adalimumab",
                    "isCorrect": true
                }
            ]
        },
        {
            "questionText": "Despre eficacitatea clinica a ixekizumab in artrita psoriazica este adevarat ca:",
            "answearVariants": [
                {
                    "answearVariantText": "La pacientii bio-naivi s-a obtinut un raspuns marcat, rapid si semnificativ clinic, observat prin toti parametrii de monitorizare a bolii",
                    "isCorrect": true
                },
                {
                    "answearVariantText": "La pacientii cu esec anterior la terapia anti-TNF s-a obtinut un raspuns marcat, rapid si semnificativ clinic, observat prin toti parametrii de monitorizare a bolii",
                    "isCorrect": true
                },
                {
                    "answearVariantText": "Imbunatatirea semnelor si simptomelor cutanate (pso) si articulare (AP) nu a fost legata de ameliorarea indicilor de calitate a vietii",
                    "isCorrect": false
                }
            ]
        },
        {
            "questionText": "Ca si mentinere a eficacitatii ixekizumab in artrita psoriazica putem nota ca adevarate urmatoarele afirmatii:",
            "answearVariants": [
                {
                    "answearVariantText": "In medie, raspunsul obtinut initial a scazut in timp, iar pacientii au necesitat augmentarea schemei terapeutice sau switch-ul",
                    "isCorrect": false
                },
                {
                    "answearVariantText": "In medie, raspunsul obtinut initial s-a mentinut sau chiar au existat cresteri ale raspunsului terapeutic, pana la saptamana 52 (in perioada randomizata si controlata) si 108 (extensia deschisa ulterioara)",
                    "isCorrect": true
                },
                {
                    "answearVariantText": "Datorita mecanismului sau de actiune, ixekizumab nu este indicat in tratamentul AP pe termen lung",
                    "isCorrect": false
                }
            ]
        },
        {
            "questionText": "La saptamana 24, raspunsurile ACR 20/50/70 in studiul SPIRIT-P1 (pacienti bio-naivi) au fost:",
            "answearVariants": [
                {
                    "answearVariantText": "Similare intre dozele de ixekizumab – la 2 sau la 4 saptamani.",
                    "isCorrect": true
                },
                {
                    "answearVariantText": "Similare intre ixekizumab si adalimumab",
                    "isCorrect": true
                },
                {
                    "answearVariantText": "Semnificativ superioare fata de efectul placebo",
                    "isCorrect": true
                }
            ]
        },
        {
            "questionText": "Gradul de disabilitate datorat AP, masurat prin scorul HAQ-DI total, a scazut cel mai mult, in studiul SPIRIT-P1 (pacienti bio-naivi):",
            "answearVariants": [
                {
                    "answearVariantText": "La pacientii tratati cu placebo",
                    "isCorrect": false
                },
                {
                    "answearVariantText": "La pacientii tratati cu ixekizumab",
                    "isCorrect": true
                },
                {
                    "answearVariantText": "La pacientii tratati cu adalimumab",
                    "isCorrect": false
                }
            ]
        },
        {
            "questionText": "La saptamana 24, scorurile de progresie radiografica a bolii (AP) –mTSS – au aratat urmatoarele tendinte:",
            "answearVariants": [
                {
                    "answearVariantText": "Inhibarea ratei de progresie radiografica a fost similara la ixekizumab fata de adalimumab",
                    "isCorrect": true
                },
                {
                    "answearVariantText": "Inhibarea ratei de progresie radiografica a fost superioara la ixekizumab fata de placebo si fata de adalimumab",
                    "isCorrect": false
                },
                {
                    "answearVariantText": "Progresia radiografica nu a fost determinata in studiile cu ixekizumab in artrita psoriazica (SPIRIT-P1, 2)",
                    "isCorrect": false
                }
            ]
        },
        {
            "questionText": "Pentru leziunile cutanate de psoriazis, prezente la pacientii cu artrita psoriazica din studiul SPIRIT-P1, este adevarat ca evolutia acestora:",
            "answearVariants": [
                {
                    "answearVariantText": "A fost ameliorata semnificativ de terapia cu ixekizumab, remisiunea aproape completa a lor (PASI 90) fiind inregistrata la aproape 60% dintre pacineti, la saptamana 12",
                    "isCorrect": true
                },
                {
                    "answearVariantText": "A cunoscut o dinamica similara cu cea observata in studiile cu ixekizumab in psoriazisul in placi sever – programul clinic UNCOVER",
                    "isCorrect": true
                },
                {
                    "answearVariantText": "Diferenta dintre ratele de raspuns terapeutic la ixekizumab versus cele obtinute in bratul de referinta cu adalimumab pozitioneaza ixekizumab-ul drept o alternative terapeutica mai eficienta fata de anti-TNF-uri (situatie demonstrate si de studiile UNCOVER)",
                    "isCorrect": true
                }
            ]
        },
        {
            "questionText": "In ceea ce priveste profilul de siguranta observat in studiile de artrita psoriazica, SPIRIT-P1 si SPIRIT-P2, urmatoarele afirmatii sunt adevarate:",
            "answearVariants": [
                {
                    "answearVariantText": "Intreruperile de terapie datorate infectiilor severe au fost intalnite la <1% dintre pacienti",
                    "isCorrect": true
                },
                {
                    "answearVariantText": "Infectiile severe au fost intalnite la <1% dintre pacienti",
                    "isCorrect": false
                },
                {
                    "answearVariantText": "Infectiile cu Candida spp. au aparut la <4% dintre pacientii tratati cu ixekizumab",
                    "isCorrect": true
                }
            ]
        },
        {
            "questionText": "Urmatoarele evenimente adverse au avut o frecventa 0 (zero) in studiile cu ixekizumab in artrita psoriazica:",
            "answearVariants": [
                {
                    "answearVariantText": "Reactivarile de TB / infectiile TB active",
                    "isCorrect": true
                },
                {
                    "answearVariantText": "Reactiile adverse cardiace majore",
                    "isCorrect": true
                },
                {
                    "answearVariantText": "Decese",
                    "isCorrect": true
                }
            ]
        }
    ]
}